MA [46]15 Final Project Group 5 - Blog Post 4
…
print(long_data)

# A tibble: 3,060,960 × 34
   Nation        Region Division State CBSA  County NAICS2 NAICS2_Name NAICS3
   <chr>         <chr>  <chr>    <chr> <chr> <chr>   <int> <chr>        <int>
 1 United States ""     ""       ""    ""    ""         NA ""              NA
 2 United States ""     ""       ""    ""    ""         NA ""              NA
 3 United States ""     ""       ""    ""    ""         NA ""              NA
 4 United States ""     ""       ""    ""    ""         NA ""              NA
 5 United States ""     ""       ""    ""    ""         NA ""              NA
 6 United States ""     ""       ""    ""    ""         NA ""              NA
 7 United States ""     ""       ""    ""    ""         NA ""              NA
 8 United States ""     ""       ""    ""    ""         NA ""              NA
 9 United States ""     ""       ""    ""    ""         NA ""              NA
10 United States ""     ""       ""    ""    ""         NA ""              NA
# ℹ 3,060,950 more rows
# ℹ 25 more variables: NAICS3_Name <chr>, Establishments <int>, MT1 <chr>,
#   MT2 <chr>, MT3 <chr>, MT4 <chr>, MT5 <chr>, MT6 <chr>, MT7 <chr>,
#   MT8 <chr>, MT9 <chr>, MT1_2 <chr>, FT1 <chr>, FT2 <chr>, FT3 <chr>,
#   FT4 <chr>, FT5 <chr>, FT6 <chr>, FT7 <chr>, FT8 <chr>, FT9 <chr>,
#   FT1_2 <chr>, Race <chr>, JobType <chr>, Count <chr>
…
